module gitlab.com/growy1/seed

go 1.15

require (
	github.com/gofrs/uuid v4.0.0+incompatible
	github.com/jackc/pgproto3/v2 v2.0.7 // indirect
	golang.org/x/crypto v0.0.0-20201221181555-eec23a3978ad
	golang.org/x/text v0.3.5 // indirect
	golang.org/x/xerrors v0.0.0-20200804184101-5ec99f83aff1 // indirect
	gorm.io/driver/postgres v1.0.8
	gorm.io/gorm v1.20.12
)
